................
----------------------------------------------------------------------
Ran 16 tests in 9.742s

OK
Name             Stmts   Miss Branch BrPart  Cover   Missing
------------------------------------------------------------
Collatz.py          32      0     10      0   100%
TestCollatz.py      69      0      0      0   100%
------------------------------------------------------------
TOTAL              101      0     10      0   100%
