................
----------------------------------------------------------------------
Ran 16 tests in 0.010s

OK
Name             Stmts   Miss Branch BrPart  Cover   Missing
------------------------------------------------------------
Collatz.py          36      0     16      0   100%
TestCollatz.py      72      0      0      0   100%
------------------------------------------------------------
TOTAL              108      0     16      0   100%
