..................
----------------------------------------------------------------------
Ran 18 tests in 4.253s

OK
Name             Stmts   Miss Branch BrPart  Cover   Missing
------------------------------------------------------------
Collatz.py          54      0     22      0   100%
TestCollatz.py      78      0      0      0   100%
------------------------------------------------------------
TOTAL              132      0     22      0   100%
