1 10 20
100 200 125
201 210 89
900 1000 174
100 10 119
1 1 1
100 100 26
69 420 144
4 40 112
400 800 171
401 410 41
900 4000 238
7 70 113
700 1400 182
701 710 171
7900 71000 340
456 482 129
789 123 171
1155 7894 262
4654 2333 238
1111 2222 182
11123 13547 276
47 89 116
956739 956006 352
826611 825983 313
756134 756776 362
478642 479101 338
815892 815933 269
719220 719135 274
929349 929040 339
948351 948681 326
491808 491202 320
504516 507852 382
604712 604712 67
436809 436182 325
630804 630542 310
2 1596 182
99 9999 262
1 1999 182
340 30100 308
5 6 9
7 10 20
1 98746 351
9999 9998 92
605293 606510 341
956739 956006 352
826611 825983 313
756134 756776 362
478642 479101 338
815892 815933 269
719220 719135 274
929349 929040 339
948351 948681 326
491808 491202 320
504516 507852 382
604712 604712 67
436809 436182 325
630804 630542 310
975948 975688 334
945718 945752 202
747700 747747 243
652581 653137 336
824003 823974 238
655077 655161 186
567537 567893 346
851101 851038 238
524621 524569 302
549210 549073 240
782205 782263 287
422252 422691 325
285142 285524 376
478472 479285 338
485461 484957 320
748121 748121 256
823874 824088 238
359661 358904 317
388654 388444 299
981428 981459 184
830977 832487 419
654572 654612 248
240125 241624 368
532347 536933 377
545105 545167 209
850670 851113 357
978562 976960 383
319662 322868 371
560495 559981 359
831101 831011 251
784445 782843 331
859271 859331 295
998394 998498 277
975465 975228 228
687538 680880 398
786313 786051 269
780568 780732 300
363174 361163 361
261481 261858 288
908012 909802 370
984442 984350 246
931890 931544 277
788836 791387 406
1 1000 179
1001 2000 182
