............
----------------------------------------------------------------------
Ran 12 tests in 0.007s

OK
Name             Stmts   Miss Branch BrPart  Cover   Missing
------------------------------------------------------------
Collatz.py          39      0     10      0   100%
TestCollatz.py      50      0      0      0   100%
------------------------------------------------------------
TOTAL               89      0     10      0   100%
