................
----------------------------------------------------------------------
Ran 16 tests in 8.860s

OK
Name             Stmts   Miss Branch BrPart  Cover   Missing
------------------------------------------------------------
Collatz.py          50      0     24      0   100%
TestCollatz.py      69      0      0      0   100%
------------------------------------------------------------
TOTAL              119      0     24      0   100%
