75287 50595 340
61434 4441 340
76757 98402 351
77151 9025 351
66300 71303 312
93356 8017 351
12702 33250 308
2035 47476 324
81528 1430 351
54554 63407 335
95277 84086 333
90680 70320 351
44857 59970 340
24580 2676 282
37279 65575 340
69184 70847 312
99483 64480 351
23482 44764 324
56055 95050 351
34885 32119 311
50488 42416 314
36246 46345 314
71770 16692 340
29831 16336 308
83236 95763 333
23720 38558 324
69908 60268 335
40632 8586 324
76312 72093 325
98060 82654 333
58106 28274 340
43487 63691 340
75308 742 340
70910 33496 340
32297 79594 351
12862 40105 324
72416 36089 340
71695 80260 351
84345 73006 351
31454 17092 308
17391 34975 311
48324 18093 324
91526 21955 351
52013 24916 324
60459 5622 340
65279 9293 340
38659 60942 340
11756 55956 340
45494 56292 340
53206 17465 340
64545 14230 340
4603 11033 268
49517 7796 324
91219 12790 351
79117 86755 320
69008 16394 340
98963 64019 351
72255 87374 351
79377 99551 333
29807 68068 340
11190 30668 308
54665 40201 340
49864 68163 340
50339 12172 324
4785 33356 308
86657 46492 351
37583 42401 306
81150 16557 351
45380 32921 324
99499 3597 351
60259 23649 340
90659 43194 351
88403 29631 351
73100 44835 340
9508 24557 282
51853 53713 340
84986 71502 351
48600 62536 340
51578 88142 351
90849 93865 333
48931 46072 314
18144 85223 351
66734 1493 340
96366 76296 351
83274 67886 351
62120 51391 340
54676 985 340
52298 16299 324
87366 42516 351
86919 79068 320
24020 91686 351
49922 9802 324
20308 8649 279
36885 48692 314
70324 51265 340
72719 59760 335
72596 91640 351
72446 14235 340
48861 43587 314
71607 18062 340
49031 26015 324
99715 89102 333
53686 94355 351
84096 23342 351
70327 15820 340
83032 60533 351
9929 60534 340
34299 97504 351
18842 87339 351
31183 31953 285
25404 64599 340
80642 91600 333
930 73761 340
51204 22307 324
75738 27816 340
73224 64103 325
26532 80146 351
61429 64402 330
43859 76188 340
47929 36141 314
55825 62444 335
88469 40495 351
91105 70166 351
86775 49514 351
99941 21744 351
5985 89125 351
60983 79826 351
42482 59566 340
10624 78993 351
41695 20954 324
18343 14827 279
15332 53433 340
1940 89480 351
81493 79937 320
93973 71104 351
38637 74532 340
85596 49575 351
70091 86078 351
36471 25261 324
2521 54269 340
78875 29598 351
49222 52185 309
73758 49330 340
36990 25387 324
71097 428 340
31431 84088 351
83327 29696 351
27221 31034 272
27276 7692 308
65107 62534 330
60062 40537 340
68893 55384 335
60408 86166 351
68157 56128 335
12191 74526 340
57156 90090 351
22726 97663 351
13779 2378 276
62588 6519 340
50987 41818 314
93337 19486 351
51604 13957 324
96562 40655 351
74081 63144 330
98036 46049 351
90038 1442 351
69753 82032 351
1600 40815 324
69840 83478 351
95383 58152 351
46244 29647 324
85267 18753 351
28381 39459 324
18572 58319 340
83333 3656 351
